^D:\ABHI\CODE\C#\WPF\GAMEOFLIFE\GAMEOFLIFE\PROPERTIES\RESOURCES.RESX
D:\ABHI\CODE\C#\WPF\GAMEOFLIFE\GAMEOFLIFE\OBJ\X86\DEBUG\GAMEOFLIFE.PROPERTIES.RESOURCES.RESOURCES
^D:\ABHI\CODE\C#\CONWAYS-GAME-OF-LIFE\GAMEOFLIFE\PROPERTIES\RESOURCES.RESX
D:\ABHI\CODE\C#\CONWAYS-GAME-OF-LIFE\GAMEOFLIFE\OBJ\X86\DEBUG\GAMEOFLIFE.PROPERTIES.RESOURCES.RESOURCES
